{
    "type": "FeatureCollection",
    "name": "Camping Spots",
    "crs": { "type": "name", "properties": { "name": "urn:ogc:def:crs:OGC:1.3:CRS84" } },
    "features": [
        {
            "type": "Feature",
            "properties": {
                "name": "Near Hallaryd",
                "description": "Near Hallaryd",
                "image": "",
                "time": "2021-07-16"
            },
             "geometry": {
                 "type": "Point",
                 "coordinates": [13.8723314, 56.4815826]
            }
        },
        {
            "type": "Feature",
            "properties": {
                "name": "Jetesjöns Camping",
                "description": "Jetesjöns Camping",
                "image": "",
                "time": "2021-07-17"
            },
             "geometry": {
                 "type": "Point",
                 "coordinates": [13.6015500, 56.4642700]
            }
        },
        {
            "type": "Feature",
            "properties": {
                "name": "Mästocka Vindskydd",
                "description": "Mästocka Vindskydd",
                "image": "",
                "time": "2021-07-19"
            },
             "geometry": {
                 "type": "Point",
                 "coordinates": [13.2452844, 56.6079547]
            }
        },
        {
            "type": "Feature",
            "properties": {
                "name": "Ryet Vindskydd",
                "description": "Ryet Vindskydd",
                "image": "",
                "time": "2021-07-20"
            },
             "geometry": {
                 "type": "Point",
                 "coordinates": [13.0280778, 56.8001550]
            }
        },
        {
            "type": "Feature",
            "properties": {
                "name": "Vilshärads Camping",
                "description": "Vilshärads Camping",
                "image": "",
                "time": "2021-07-21"
            },
             "geometry": {
                 "type": "Point",
                 "coordinates": [12.7006125, 56.6958733]
            }
        },
        {
            "type": "Feature",
            "properties": {
                "name": "Vesslunda naturreservat",
                "description": "Vesslunda naturreservat",
                "image": "",
                "time": "2021-07-22"
            },
             "geometry": {
                 "type": "Point",
                 "coordinates": [12.5823056, 56.8404667]
            }
        },
        {
            "type": "Feature",
            "properties": {
                "name": "Längesjön Vindskydd",
                "description": "Längesjön Vindskydd",
                "image": "",
                "time": "2021-07-23"
            },
             "geometry": {
                 "type": "Point",
                 "coordinates": [13.0121342, 57.0368147]
            }
        },
        {
            "type": "Feature",
            "properties": {
                "name": "Ullared Vindskydd",
                "description": "Ullared Vindskydd",
                "image": "",
                "time": "2021-07-24"
            },
             "geometry": {
                 "type": "Point",
                 "coordinates": [12.6917983, 57.1185953]
            }
        },
        {
            "type": "Feature",
            "properties": {
                "name": "Agrell's stugor o camping",
                "description": "Agrell's stugor o camping",
                "image": "",
                "time": "2021-07-25"
            },
             "geometry": {
                 "type": "Point",
                 "coordinates": [12.2525306, 57.0893053]
            }
        }
]
}