<?xml version="1.0" encoding="UTF-8" standalone="no"?>
<!-- Created with Inkscape (http://www.inkscape.org/) -->

<svg
   xmlns:dc="http://purl.org/dc/elements/1.1/"
   xmlns:cc="http://creativecommons.org/ns#"
   xmlns:rdf="http://www.w3.org/1999/02/22-rdf-syntax-ns#"
   xmlns:svg="http://www.w3.org/2000/svg"
   xmlns="http://www.w3.org/2000/svg"
   xmlns:sodipodi="http://sodipodi.sourceforge.net/DTD/sodipodi-0.dtd"
   xmlns:inkscape="http://www.inkscape.org/namespaces/inkscape"
   sodipodi:docname="border-outer.svg"
   inkscape:version="0.92.3 (2405546, 2018-03-11)"
   id="svg8"
   version="1.1"
   viewBox="0 0 135.46666 135.46667"
   height="512"
   width="512"
   inkscape:export-filename="/home/fic/Pictures/panda_siili/border.png"
   inkscape:export-xdpi="96"
   inkscape:export-ydpi="96">
  <sodipodi:namedview
     inkscape:snap-page="true"
     inkscape:window-maximized="1"
     inkscape:window-y="27"
     inkscape:window-x="61"
     inkscape:window-height="1025"
     inkscape:window-width="1859"
     units="px"
     showgrid="false"
     inkscape:current-layer="layer1"
     inkscape:document-units="px"
     inkscape:cy="240.19708"
     inkscape:cx="326.90896"
     inkscape:zoom="1.4"
     inkscape:pageshadow="2"
     inkscape:pageopacity="0.0"
     borderopacity="1.0"
     bordercolor="#666666"
     pagecolor="#ffffff"
     id="base"
     inkscape:snap-bbox="true"
     inkscape:snap-bbox-midpoints="true"
     inkscape:snap-object-midpoints="true"
     showguides="true"
     inkscape:guide-bbox="true"
     inkscape:snap-to-guides="true"
     fit-margin-top="0"
     fit-margin-left="0"
     fit-margin-right="0"
     fit-margin-bottom="0" />
  <defs
     id="defs2" />
  <metadata
     id="metadata5">
    <rdf:RDF>
      <cc:Work
         rdf:about="">
        <dc:format>image/svg+xml</dc:format>
        <dc:type
           rdf:resource="http://purl.org/dc/dcmitype/StillImage" />
        <dc:title />
      </cc:Work>
    </rdf:RDF>
  </metadata>
  <g
     inkscape:groupmode="layer"
     id="layer3"
     inkscape:label="bottom"
     transform="translate(0,132.82083)" />
  <g
     inkscape:groupmode="layer"
     id="layer2"
     inkscape:label="top"
     style="display:none"
     transform="translate(0,132.82083)">
    <path
       transform="translate(0.07755,-292.61192)"
       sodipodi:nodetypes="ccssssssssssssc"
       inkscape:connector-curvature="0"
       id="path916"
       d="m -0.07755,293.93991 c 2.0552455,0 3.3040959,-0.24998 9.3603999,-0.24998 2.7575441,0 6.4861501,0.0908 10.1421921,0.0908 2.983451,0 6.266455,0.43315 9.713129,0.43315 3.079067,0 6.004653,-0.33912 9.361677,-0.33912 3.134582,0 6.253323,-0.21897 9.55728,-0.21897 3.174071,0 6.852581,0.45813 10.119214,0.45813 3.205938,0 6.334993,-0.13074 9.570465,-0.13074 3.234964,0 6.310524,-0.077 9.515976,-0.077 3.266538,0 6.587145,-0.0349 9.761146,-0.0349 3.304283,0 6.624771,0.15238 9.759669,0.15238 3.357012,0 6.605332,0.17611 9.684412,0.17611 3.44718,0 6.43431,-0.18286 9.41816,-0.18286 3.65617,0 6.82132,-0.11228 9.57896,-0.11228 6.05648,0 7.91041,0.0671 10.00154,0.0671 l -1e-5,-1.35981 H -0.07755 Z"
       style="fill:#ffffff;stroke:none;stroke-width:1.32291663;stroke-linecap:butt;stroke-linejoin:miter;stroke-miterlimit:4;stroke-dasharray:none;stroke-opacity:1" />
  </g>
  <g
     inkscape:label="line"
     inkscape:groupmode="layer"
     id="layer1"
     transform="translate(0.07755,-159.79109)">
    <path
       id="path834"
       style="fill:#ffffff;stroke:none;stroke-width:1.32291663;stroke-linecap:butt;stroke-linejoin:round;stroke-miterlimit:4;stroke-dasharray:none;stroke-opacity:1"
       d="m 0.85252453,294.32233 c 2.05524547,0 2.33524387,-0.24998 8.39154787,-0.24998 2.7575436,0 6.4861496,0.0908 10.1421916,0.0908 2.983451,0 6.266455,0.43315 9.713129,0.43315 3.079067,0 6.004653,-0.33912 9.361677,-0.33912 3.134582,0 6.253323,-0.21897 9.55728,-0.21897 3.174071,0 6.852581,0.45813 10.119214,0.45813 3.205938,0 6.334993,-0.13074 9.570465,-0.13074 3.234964,0 6.310524,-0.077 9.515976,-0.077 3.266538,0 6.587145,-0.0349 9.761146,-0.0349 3.304283,0 6.624771,0.15238 9.759669,0.15238 3.35701,0 6.60533,0.17611 9.68441,0.17611 3.44718,0 6.43431,-0.18286 9.41816,-0.18286 3.65617,0 6.82132,-0.11228 9.57896,-0.11228 6.05648,0 6.89424,0.0907 8.98537,0.0907 v 0 c 0,-2.09113 0.0671,-3.94506 0.0671,-10.00154 0,-2.75764 -0.11228,-5.00405 -0.11228,-8.66022 0,-2.98385 -0.18286,-5.97098 -0.18286,-9.41816 0,-3.07908 0.17611,-6.3274 0.17611,-9.68441 0,-3.1349 0.15238,-6.45538 0.15238,-9.75967 0,-3.174 -0.0349,-6.4946 -0.0349,-9.76114 0,-3.20545 -0.077,-6.28101 -0.077,-9.51598 0,-3.23547 -0.13074,-6.36453 -0.13074,-9.57046 0,-3.26664 0.45813,-6.94515 0.45813,-10.11922 0,-3.30395 -0.21897,-6.4227 -0.21897,-9.55728 0,-3.35702 -0.33912,-6.28261 -0.33912,-9.36167 0,-3.44668 0.43315,-6.72968 0.43315,-9.71313 0,-3.65605 0.0908,-7.38465 0.0908,-10.1422 0,-6.0563 -0.18105,-6.33094 -0.18105,-8.38619 v 0 c -2.05525,0 -3.3041,0.24998 -9.3604,0.24998 -2.75754,0 -5.57074,-0.0908 -9.22678,-0.0908 -2.98345,0 -6.26646,-0.43315 -9.71313,-0.43315 -3.07906,0 -6.00465,0.33912 -9.361663,0.33912 -3.134582,0 -6.253324,0.21897 -9.557279,0.21897 -3.174071,0 -6.852581,-0.45813 -10.119214,-0.45813 -3.205938,0 -6.334993,0.13074 -9.570466,0.13074 -3.234963,0 -6.310524,0.077 -9.515975,0.077 -3.266538,0 -6.587146,0.0349 -9.761146,0.0349 -3.304283,0 -6.624772,-0.15238 -9.759669,-0.15238 -3.357013,0 -6.605333,-0.17611 -9.684413,-0.17611 -3.447175,0 -6.434305,0.18286 -9.418155,0.18286 -3.65617,0 -6.82132,0.11228 -9.57896,0.11228 -6.05648,0 -6.8942417,-0.0409 -8.98537169,-0.0409 0,2.09113 -0.0671,2.9765 -0.0671,9.03298 0,2.75764 0.11228,5.92279 0.11228,9.57896 0,2.98385 0.18285999,5.97098 0.18285999,9.41816 0,3.07908 -0.17610999,6.3274 -0.17610999,9.68441 0,3.1349 -0.15238,6.45538 -0.15238,9.75967 0,3.174 0.0349,6.4946 0.0349,9.76114 0,3.20545 0.077,6.28101 0.077,9.51598 0,3.23547 0.13073999,6.36453 0.13073999,9.57046 0,3.26664 -0.45812999,6.94515 -0.45812999,10.11922 0,3.30395 0.21897,6.4227 0.21897,9.55728 0,3.35702 0.33911999,6.28261 0.33911999,9.36167 0,3.44668 -0.43314999,6.72968 -0.43314999,9.71313 0,3.65605 -0.0908,7.38465 -0.0908,10.1422 0,6.0563 0.23447622,6.33092 0.23447622,8.38617 z M -0.07755,159.79109 H 135.38911 V 295.25775 H -0.07755 Z" />
    <path
       style="fill:none;stroke:#000000;stroke-width:1.32291663;stroke-linecap:butt;stroke-linejoin:round;stroke-miterlimit:4;stroke-dasharray:none;stroke-opacity:1"
       d="m 0.852521,294.32235 c 2.055246,0 2.335244,-0.24998 8.391548,-0.24998 2.757544,0 6.48615,0.0908 10.142192,0.0908 2.983451,0 6.266455,0.43315 9.713128,0.43315 3.079068,0 6.004653,-0.33912 9.361678,-0.33912 3.134582,0 6.253321,-0.21897 9.557279,-0.21897 3.174071,0 6.852581,0.45813 10.119215,0.45813 3.205937,0 6.334992,-0.13074 9.570465,-0.13074 3.234963,0 6.310525,-0.077 9.515975,-0.077 3.266538,0 6.587146,-0.0349 9.761146,-0.0349 3.304284,0 6.624773,0.15238 9.759673,0.15238 3.35701,0 6.60533,0.17611 9.68441,0.17611 3.44718,0 6.43431,-0.18286 9.41816,-0.18286 3.65617,0 6.82132,-0.11228 9.57896,-0.11228 6.05648,0 6.89424,0.0907 8.98537,0.0907 v 0 c 0,-2.09113 0.0671,-3.94506 0.0671,-10.00154 0,-2.75764 -0.11228,-5.00405 -0.11228,-8.66022 0,-2.98385 -0.18286,-5.97098 -0.18286,-9.41816 0,-3.07908 0.17611,-6.3274 0.17611,-9.68441 0,-3.1349 0.15238,-6.45538 0.15238,-9.75967 0,-3.174 -0.0349,-6.4946 -0.0349,-9.76114 0,-3.20545 -0.077,-6.28101 -0.077,-9.51598 0,-3.23547 -0.13074,-6.36453 -0.13074,-9.57046 0,-3.26664 0.45813,-6.94515 0.45813,-10.11922 0,-3.30395 -0.21897,-6.4227 -0.21897,-9.55728 0,-3.35702 -0.33912,-6.28261 -0.33912,-9.36167 0,-3.44668 0.43315,-6.72968 0.43315,-9.71313 0,-3.65605 0.0908,-7.38465 0.0908,-10.1422 0,-6.0563 -0.18105,-6.33094 -0.18105,-8.38619 v 0 c -2.05525,0 -3.3041,0.24998 -9.3604,0.24998 -2.75754,0 -5.57074,-0.0908 -9.22678,-0.0908 -2.98345,0 -6.26646,-0.43315 -9.71313,-0.43315 -3.07906,0 -6.00465,0.33912 -9.36167,0.33912 -3.13458,0 -6.25332,0.21897 -9.557275,0.21897 -3.174071,0 -6.852581,-0.45813 -10.119215,-0.45813 -3.205937,0 -6.334992,0.13074 -9.570465,0.13074 -3.234963,0 -6.310525,0.077 -9.515975,0.077 -3.266538,0 -6.587146,0.0349 -9.761146,0.0349 -3.304284,0 -6.624773,-0.15238 -9.75967,-0.15238 -3.357012,0 -6.605333,-0.17611 -9.684414,-0.17611 -3.447173,0 -6.434303,0.18286 -9.418153,0.18286 -3.65617,0 -6.82132,0.11228 -9.57896,0.11228 -6.05648,0 -6.894242,-0.0409 -8.985372,-0.0409 0,2.09113 -0.0671,2.9765 -0.0671,9.03298 0,2.75764 0.11228,5.92279 0.11228,9.57896 0,2.98385 0.18286,5.97098 0.18286,9.41816 0,3.07908 -0.17611,6.3274 -0.17611,9.68441 0,3.1349 -0.15238,6.45538 -0.15238,9.75967 0,3.174 0.0349,6.4946 0.0349,9.76114 0,3.20545 0.077,6.28101 0.077,9.51598 0,3.23547 0.13074,6.36453 0.13074,9.57046 0,3.26664 -0.45813,6.94515 -0.45813,10.11922 0,3.30395 0.21897,6.4227 0.21897,9.55728 0,3.35702 0.33912,6.28261 0.33912,9.36167 0,3.44668 -0.43315,6.72968 -0.43315,9.71313 0,3.65605 -0.0908,7.38465 -0.0908,10.1422 0,6.0563 0.234476,6.33092 0.234476,8.38617 z"
       id="path834-6"
       inkscape:connector-curvature="0"
       sodipodi:nodetypes="ccssssssssssssccssssssssssssccccsssssssssssscssssssssssssccc" />
  </g>
</svg>
